EESchema Schematic File Version 4
EELAYER 30 0
EELAYER END
$Descr A4 11693 8268
encoding utf-8
Sheet 1 1
Title ""
Date ""
Rev ""
Comp ""
Comment1 ""
Comment2 ""
Comment3 ""
Comment4 ""
$EndDescr
$Comp
L Interface:PCA9306 U2
U 1 1 5E1C316F
P 2350 2000
F 0 "U2" H 2350 1411 50  0000 C CNN
F 1 "PCA9306" H 2350 1320 50  0000 C CNN
F 2 "Package_SO:VSSOP-8_2.3x2mm_P0.5mm" H 1950 2350 50  0001 C CNN
F 3 "http://www.ti.com/lit/ds/symlink/pca9306.pdf" H 2050 2450 50  0001 C CNN
	1    2350 2000
	1    0    0    -1  
$EndComp
$Comp
L Transistor_FET:IRF540N Q3
U 1 1 5E1C58F2
P 5500 1700
F 0 "Q3" V 5850 1650 50  0000 L CNN
F 1 "IRF540N" V 5750 1550 50  0000 L CNN
F 2 "Package_TO_SOT_SMD:TO-263-2" H 5750 1625 50  0001 L CIN
F 3 "http://www.irf.com/product-info/datasheets/data/irf540n.pdf" H 5500 1700 50  0001 L CNN
	1    5500 1700
	0    1    -1   0   
$EndComp
$Comp
L Regulator_Switching:GL2576-5.0TB5T U4
U 1 1 5E1C794F
P 9350 4200
F 0 "U4" H 9350 4567 50  0000 C CNN
F 1 "GL2576-5.0TB5T" H 9350 4476 50  0000 C CNN
F 2 "Package_TO_SOT_THT:TO-220-5_Vertical" H 9350 3950 50  0001 L CIN
F 3 "http://www.dianyuan.com/bbs/u/54/437861181916300.pdf" H 9350 4200 50  0001 C CNN
	1    9350 4200
	1    0    0    -1  
$EndComp
$Comp
L Device:CP C1
U 1 1 5E1C905C
P 8500 4250
F 0 "C1" H 8618 4296 50  0000 L CNN
F 1 "100u" H 8618 4205 50  0000 L CNN
F 2 "Capacitor_SMD:CP_Elec_6.3x7.7" H 8538 4100 50  0001 C CNN
F 3 "~" H 8500 4250 50  0001 C CNN
	1    8500 4250
	1    0    0    -1  
$EndComp
$Comp
L Diode:1N5822 D1
U 1 1 5E1C9A92
P 9900 4500
F 0 "D1" V 9854 4579 50  0000 L CNN
F 1 "1N5822" V 9945 4579 50  0000 L CNN
F 2 "Diode_SMD:D_0603_1608Metric_Pad1.05x0.95mm_HandSolder" H 9900 4325 50  0001 C CNN
F 3 "http://www.vishay.com/docs/88526/1n5820.pdf" H 9900 4500 50  0001 C CNN
	1    9900 4500
	0    1    1    0   
$EndComp
$Comp
L Device:L L1
U 1 1 5E1CA6FF
P 10200 4300
F 0 "L1" V 10019 4300 50  0000 C CNN
F 1 "100uH" V 10110 4300 50  0000 C CNN
F 2 "Inductor_SMD:L_1206_3216Metric_Pad1.42x1.75mm_HandSolder" H 10200 4300 50  0001 C CNN
F 3 "~" H 10200 4300 50  0001 C CNN
	1    10200 4300
	0    1    1    0   
$EndComp
$Comp
L Device:CP C2
U 1 1 5E1CDA4B
P 10600 4450
F 0 "C2" H 10718 4496 50  0000 L CNN
F 1 "680u" H 10718 4405 50  0000 L CNN
F 2 "Capacitor_SMD:CP_Elec_8x10" H 10638 4300 50  0001 C CNN
F 3 "~" H 10600 4450 50  0001 C CNN
	1    10600 4450
	1    0    0    -1  
$EndComp
$Comp
L power:GND #PWR0101
U 1 1 5E1D1550
P 8850 4650
F 0 "#PWR0101" H 8850 4400 50  0001 C CNN
F 1 "GND" H 8855 4477 50  0000 C CNN
F 2 "" H 8850 4650 50  0001 C CNN
F 3 "" H 8850 4650 50  0001 C CNN
	1    8850 4650
	1    0    0    -1  
$EndComp
Wire Wire Line
	9850 4300 9900 4300
Wire Wire Line
	9900 4300 9900 4350
Wire Wire Line
	9900 4650 9350 4650
Wire Wire Line
	9350 4650 9350 4500
Wire Wire Line
	10600 4600 10600 4650
Wire Wire Line
	10600 4650 9900 4650
Connection ~ 9900 4650
Wire Wire Line
	10050 4300 9900 4300
Connection ~ 9900 4300
Wire Wire Line
	10350 4300 10600 4300
Wire Wire Line
	9850 4100 10350 4100
Wire Wire Line
	10350 4100 10350 4300
Connection ~ 10350 4300
Wire Wire Line
	8850 4300 8850 4650
Wire Wire Line
	9350 4650 8850 4650
Connection ~ 9350 4650
Connection ~ 8850 4650
Text GLabel 10700 4300 2    50   Output ~ 0
5V
Wire Wire Line
	8850 4100 8500 4100
Wire Wire Line
	8500 4400 8500 4650
Wire Wire Line
	8500 4650 8850 4650
Wire Wire Line
	10600 4300 10700 4300
Connection ~ 10600 4300
$Comp
L MCU_Module:WeMos_D1_mini U1
U 1 1 5E1C2120
P 1200 2300
F 0 "U1" H 1000 1950 50  0000 C CNN
F 1 "WeMos_D1_mini" H 1200 1800 50  0000 C CNN
F 2 "Module:WEMOS_D1_mini_light" H 1200 1150 50  0001 C CNN
F 3 "https://wiki.wemos.cc/products:d1:d1_mini#documentation" H -650 1150 50  0001 C CNN
	1    1200 2300
	1    0    0    -1  
$EndComp
Text GLabel 1100 1400 1    50   Input ~ 0
5V
Wire Wire Line
	1100 1500 1100 1400
$Comp
L power:GND #PWR0102
U 1 1 5E1F19AB
P 1200 3300
F 0 "#PWR0102" H 1200 3050 50  0001 C CNN
F 1 "GND" H 1205 3127 50  0000 C CNN
F 2 "" H 1200 3300 50  0001 C CNN
F 3 "" H 1200 3300 50  0001 C CNN
	1    1200 3300
	1    0    0    -1  
$EndComp
$Comp
L power:GND #PWR0103
U 1 1 5E1F27F3
P 2350 2800
F 0 "#PWR0103" H 2350 2550 50  0001 C CNN
F 1 "GND" H 2355 2627 50  0000 C CNN
F 2 "" H 2350 2800 50  0001 C CNN
F 3 "" H 2350 2800 50  0001 C CNN
	1    2350 2800
	1    0    0    -1  
$EndComp
$Comp
L Connector:Screw_Terminal_01x02 J1
U 1 1 5E1F6351
P 8050 4200
F 0 "J1" H 7968 3875 50  0000 C CNN
F 1 "Screw_Terminal_01x02" H 8050 4400 50  0000 C CNN
F 2 "TerminalBlock_Phoenix:TerminalBlock_Phoenix_MKDS-1,5-2-5.08_1x02_P5.08mm_Horizontal" H 8050 4200 50  0001 C CNN
F 3 "~" H 8050 4200 50  0001 C CNN
	1    8050 4200
	-1   0    0    1   
$EndComp
Wire Wire Line
	8250 4100 8500 4100
Connection ~ 8500 4100
Wire Wire Line
	8250 4200 8250 4650
Wire Wire Line
	8250 4650 8500 4650
Connection ~ 8500 4650
Wire Wire Line
	1200 3100 1200 3300
Text GLabel 2450 1450 1    50   Input ~ 0
5V
Wire Wire Line
	2350 2500 2350 2800
Wire Wire Line
	2450 1500 2450 1450
$Comp
L Connector:Screw_Terminal_01x16 J2
U 1 1 5E20B7E8
P 8150 900
F 0 "J2" H 8230 892 50  0000 L CNN
F 1 "Screw_Terminal_01x16" V 8350 500 50  0000 L CNN
F 2 "TerminalBlock_Phoenix:TerminalBlock_Phoenix_PT-1,5-16-5.0-H_1x16_P5.00mm_Horizontal" H 8150 900 50  0001 C CNN
F 3 "~" H 8150 900 50  0001 C CNN
	1    8150 900 
	0    -1   -1   0   
$EndComp
$Comp
L power:GND #PWR0105
U 1 1 5E20D67F
P 5300 1700
F 0 "#PWR0105" H 5300 1450 50  0001 C CNN
F 1 "GND" H 5305 1527 50  0000 C CNN
F 2 "" H 5300 1700 50  0001 C CNN
F 3 "" H 5300 1700 50  0001 C CNN
	1    5300 1700
	1    0    0    -1  
$EndComp
Text GLabel 2800 1800 1    50   Input ~ 0
5V
$Comp
L power:GND #PWR0107
U 1 1 5E21C437
P 6900 1900
F 0 "#PWR0107" H 6900 1650 50  0001 C CNN
F 1 "GND" H 6905 1727 50  0000 C CNN
F 2 "" H 6900 1900 50  0001 C CNN
F 3 "" H 6900 1900 50  0001 C CNN
	1    6900 1900
	1    0    0    -1  
$EndComp
$Comp
L Transistor_FET:IRF540N Q6
U 1 1 5E21F8A2
P 6700 1850
F 0 "Q6" V 7050 1800 50  0000 L CNN
F 1 "IRF540N" V 6950 1700 50  0000 L CNN
F 2 "Package_TO_SOT_SMD:TO-263-2" H 6950 1775 50  0001 L CIN
F 3 "http://www.irf.com/product-info/datasheets/data/irf540n.pdf" H 6700 1850 50  0001 L CNN
	1    6700 1850
	0    1    -1   0   
$EndComp
$Comp
L power:GND #PWR0109
U 1 1 5E21F8A8
P 6500 1850
F 0 "#PWR0109" H 6500 1600 50  0001 C CNN
F 1 "GND" H 6505 1677 50  0000 C CNN
F 2 "" H 6500 1850 50  0001 C CNN
F 3 "" H 6500 1850 50  0001 C CNN
	1    6500 1850
	1    0    0    -1  
$EndComp
$Comp
L Transistor_FET:IRF540N Q4
U 1 1 5E2220C4
P 5900 1750
F 0 "Q4" V 6250 1700 50  0000 L CNN
F 1 "IRF540N" V 6150 1600 50  0000 L CNN
F 2 "Package_TO_SOT_SMD:TO-263-2" H 6150 1675 50  0001 L CIN
F 3 "http://www.irf.com/product-info/datasheets/data/irf540n.pdf" H 5900 1750 50  0001 L CNN
	1    5900 1750
	0    1    -1   0   
$EndComp
$Comp
L power:GND #PWR0110
U 1 1 5E2220CA
P 5700 1750
F 0 "#PWR0110" H 5700 1500 50  0001 C CNN
F 1 "GND" H 5705 1577 50  0000 C CNN
F 2 "" H 5700 1750 50  0001 C CNN
F 3 "" H 5700 1750 50  0001 C CNN
	1    5700 1750
	1    0    0    -1  
$EndComp
$Comp
L Transistor_FET:IRF540N Q8
U 1 1 5E2231D3
P 7500 1950
F 0 "Q8" V 7850 1900 50  0000 L CNN
F 1 "IRF540N" V 7750 1800 50  0000 L CNN
F 2 "Package_TO_SOT_SMD:TO-263-2" H 7750 1875 50  0001 L CIN
F 3 "http://www.irf.com/product-info/datasheets/data/irf540n.pdf" H 7500 1950 50  0001 L CNN
	1    7500 1950
	0    1    -1   0   
$EndComp
$Comp
L power:GND #PWR0111
U 1 1 5E2231D9
P 7300 1950
F 0 "#PWR0111" H 7300 1700 50  0001 C CNN
F 1 "GND" H 7305 1777 50  0000 C CNN
F 2 "" H 7300 1950 50  0001 C CNN
F 3 "" H 7300 1950 50  0001 C CNN
	1    7300 1950
	1    0    0    -1  
$EndComp
$Comp
L Transistor_FET:IRF540N Q12
U 1 1 5E2249BA
P 9100 2150
F 0 "Q12" V 9450 2100 50  0000 L CNN
F 1 "IRF540N" V 9350 2000 50  0000 L CNN
F 2 "Package_TO_SOT_SMD:TO-263-2" H 9350 2075 50  0001 L CIN
F 3 "http://www.irf.com/product-info/datasheets/data/irf540n.pdf" H 9100 2150 50  0001 L CNN
	1    9100 2150
	0    1    -1   0   
$EndComp
$Comp
L power:GND #PWR0112
U 1 1 5E2249C0
P 8900 2150
F 0 "#PWR0112" H 8900 1900 50  0001 C CNN
F 1 "GND" H 8905 1977 50  0000 C CNN
F 2 "" H 8900 2150 50  0001 C CNN
F 3 "" H 8900 2150 50  0001 C CNN
	1    8900 2150
	1    0    0    -1  
$EndComp
$Comp
L Transistor_FET:IRF540N Q11
U 1 1 5E225F4A
P 8700 2100
F 0 "Q11" V 9050 2050 50  0000 L CNN
F 1 "IRF540N" V 8950 1950 50  0000 L CNN
F 2 "Package_TO_SOT_SMD:TO-263-2" H 8950 2025 50  0001 L CIN
F 3 "http://www.irf.com/product-info/datasheets/data/irf540n.pdf" H 8700 2100 50  0001 L CNN
	1    8700 2100
	0    1    -1   0   
$EndComp
$Comp
L power:GND #PWR0113
U 1 1 5E225F50
P 8500 2100
F 0 "#PWR0113" H 8500 1850 50  0001 C CNN
F 1 "GND" H 8505 1927 50  0000 C CNN
F 2 "" H 8500 2100 50  0001 C CNN
F 3 "" H 8500 2100 50  0001 C CNN
	1    8500 2100
	1    0    0    -1  
$EndComp
$Comp
L Transistor_FET:IRF540N Q10
U 1 1 5E22778B
P 8300 2050
F 0 "Q10" V 8650 2000 50  0000 L CNN
F 1 "IRF540N" V 8550 1900 50  0000 L CNN
F 2 "Package_TO_SOT_SMD:TO-263-2" H 8550 1975 50  0001 L CIN
F 3 "http://www.irf.com/product-info/datasheets/data/irf540n.pdf" H 8300 2050 50  0001 L CNN
	1    8300 2050
	0    1    -1   0   
$EndComp
$Comp
L power:GND #PWR0114
U 1 1 5E227791
P 8100 2050
F 0 "#PWR0114" H 8100 1800 50  0001 C CNN
F 1 "GND" H 8105 1877 50  0000 C CNN
F 2 "" H 8100 2050 50  0001 C CNN
F 3 "" H 8100 2050 50  0001 C CNN
	1    8100 2050
	1    0    0    -1  
$EndComp
$Comp
L power:GND #PWR0115
U 1 1 5E229B48
P 4500 1600
F 0 "#PWR0115" H 4500 1350 50  0001 C CNN
F 1 "GND" H 4505 1427 50  0000 C CNN
F 2 "" H 4500 1600 50  0001 C CNN
F 3 "" H 4500 1600 50  0001 C CNN
	1    4500 1600
	1    0    0    -1  
$EndComp
$Comp
L Transistor_FET:IRF540N Q5
U 1 1 5E22B822
P 6300 1800
F 0 "Q5" V 6650 1750 50  0000 L CNN
F 1 "IRF540N" V 6550 1650 50  0000 L CNN
F 2 "Package_TO_SOT_SMD:TO-263-2" H 6550 1725 50  0001 L CIN
F 3 "http://www.irf.com/product-info/datasheets/data/irf540n.pdf" H 6300 1800 50  0001 L CNN
	1    6300 1800
	0    1    -1   0   
$EndComp
$Comp
L power:GND #PWR0116
U 1 1 5E22B828
P 6100 1800
F 0 "#PWR0116" H 6100 1550 50  0001 C CNN
F 1 "GND" H 6105 1627 50  0000 C CNN
F 2 "" H 6100 1800 50  0001 C CNN
F 3 "" H 6100 1800 50  0001 C CNN
	1    6100 1800
	1    0    0    -1  
$EndComp
$Comp
L Transistor_FET:IRF540N Q9
U 1 1 5E22D427
P 7900 2000
F 0 "Q9" V 8250 1950 50  0000 L CNN
F 1 "IRF540N" V 8150 1850 50  0000 L CNN
F 2 "Package_TO_SOT_SMD:TO-263-2" H 8150 1925 50  0001 L CIN
F 3 "http://www.irf.com/product-info/datasheets/data/irf540n.pdf" H 7900 2000 50  0001 L CNN
	1    7900 2000
	0    1    -1   0   
$EndComp
$Comp
L power:GND #PWR0117
U 1 1 5E22D42D
P 7700 2000
F 0 "#PWR0117" H 7700 1750 50  0001 C CNN
F 1 "GND" H 7705 1827 50  0000 C CNN
F 2 "" H 7700 2000 50  0001 C CNN
F 3 "" H 7700 2000 50  0001 C CNN
	1    7700 2000
	1    0    0    -1  
$EndComp
$Comp
L Transistor_FET:IRF540N Q13
U 1 1 5E30DF2F
P 9500 2200
F 0 "Q13" V 9850 2150 50  0000 L CNN
F 1 "IRF540N" V 9750 2050 50  0000 L CNN
F 2 "Package_TO_SOT_SMD:TO-263-2" H 9750 2125 50  0001 L CIN
F 3 "http://www.irf.com/product-info/datasheets/data/irf540n.pdf" H 9500 2200 50  0001 L CNN
	1    9500 2200
	0    1    -1   0   
$EndComp
$Comp
L power:GND #PWR0118
U 1 1 5E30DF35
P 9300 2200
F 0 "#PWR0118" H 9300 1950 50  0001 C CNN
F 1 "GND" H 9305 2027 50  0000 C CNN
F 2 "" H 9300 2200 50  0001 C CNN
F 3 "" H 9300 2200 50  0001 C CNN
	1    9300 2200
	1    0    0    -1  
$EndComp
$Comp
L Transistor_FET:IRF540N Q14
U 1 1 5E3129A0
P 9900 2250
F 0 "Q14" V 10250 2200 50  0000 L CNN
F 1 "IRF540N" V 10150 2100 50  0000 L CNN
F 2 "Package_TO_SOT_SMD:TO-263-2" H 10150 2175 50  0001 L CIN
F 3 "http://www.irf.com/product-info/datasheets/data/irf540n.pdf" H 9900 2250 50  0001 L CNN
	1    9900 2250
	0    1    -1   0   
$EndComp
$Comp
L power:GND #PWR0119
U 1 1 5E3129A6
P 9700 2250
F 0 "#PWR0119" H 9700 2000 50  0001 C CNN
F 1 "GND" H 9705 2077 50  0000 C CNN
F 2 "" H 9700 2250 50  0001 C CNN
F 3 "" H 9700 2250 50  0001 C CNN
	1    9700 2250
	1    0    0    -1  
$EndComp
$Comp
L Transistor_FET:IRF540N Q15
U 1 1 5E3177C3
P 10300 2300
F 0 "Q15" V 10650 2250 50  0000 L CNN
F 1 "IRF540N" V 10550 2150 50  0000 L CNN
F 2 "Package_TO_SOT_SMD:TO-263-2" H 10550 2225 50  0001 L CIN
F 3 "http://www.irf.com/product-info/datasheets/data/irf540n.pdf" H 10300 2300 50  0001 L CNN
	1    10300 2300
	0    1    -1   0   
$EndComp
$Comp
L power:GND #PWR0120
U 1 1 5E3177C9
P 10100 2300
F 0 "#PWR0120" H 10100 2050 50  0001 C CNN
F 1 "GND" H 10105 2127 50  0000 C CNN
F 2 "" H 10100 2300 50  0001 C CNN
F 3 "" H 10100 2300 50  0001 C CNN
	1    10100 2300
	1    0    0    -1  
$EndComp
$Comp
L Transistor_FET:IRF540N Q16
U 1 1 5E31C373
P 10700 2350
F 0 "Q16" V 11050 2300 50  0000 L CNN
F 1 "IRF540N" V 10950 2200 50  0000 L CNN
F 2 "Package_TO_SOT_SMD:TO-263-2" H 10950 2275 50  0001 L CIN
F 3 "http://www.irf.com/product-info/datasheets/data/irf540n.pdf" H 10700 2350 50  0001 L CNN
	1    10700 2350
	0    1    -1   0   
$EndComp
Wire Wire Line
	5800 1800 5800 1700
Wire Wire Line
	6500 1850 6500 1750
Wire Wire Line
	6900 1900 6900 1800
Wire Wire Line
	7300 1950 7300 1850
Wire Wire Line
	7700 2000 7700 1900
Wire Wire Line
	8100 2050 8100 1950
Wire Wire Line
	8500 2100 8500 2000
Wire Wire Line
	8900 2050 8900 2150
Wire Wire Line
	9300 2200 9300 2100
Wire Wire Line
	2850 2300 2750 2300
Wire Wire Line
	2750 2300 2750 2450
$Comp
L power:GND #PWR0106
U 1 1 5E2148C7
P 2750 2450
F 0 "#PWR0106" H 2750 2200 50  0001 C CNN
F 1 "GND" H 2755 2277 50  0000 C CNN
F 2 "" H 2750 2450 50  0001 C CNN
F 3 "" H 2750 2450 50  0001 C CNN
	1    2750 2450
	1    0    0    -1  
$EndComp
Wire Wire Line
	3550 1700 3550 1650
$Comp
L power:GND #PWR0104
U 1 1 5E2091AA
P 3550 3800
F 0 "#PWR0104" H 3550 3550 50  0001 C CNN
F 1 "GND" H 3555 3627 50  0000 C CNN
F 2 "" H 3550 3800 50  0001 C CNN
F 3 "" H 3550 3800 50  0001 C CNN
	1    3550 3800
	1    0    0    -1  
$EndComp
Text GLabel 3550 1650 1    50   Input ~ 0
5V
$Comp
L Driver_LED:PCA9685PW U3
U 1 1 5E1C2854
P 3550 2700
F 0 "U3" H 3500 2850 50  0000 C CNN
F 1 "PCA9685PW" H 3550 3000 50  0000 C CNN
F 2 "Package_SO:TSSOP-28_4.4x9.7mm_P0.65mm" H 3575 1725 50  0001 L CNN
F 3 "http://www.nxp.com/documents/data_sheet/PCA9685.pdf" H 3150 3400 50  0001 C CNN
	1    3550 2700
	1    0    0    -1  
$EndComp
Wire Wire Line
	2750 1900 2800 1900
Wire Wire Line
	2800 1900 2800 1800
Wire Wire Line
	5700 1750 5700 1650
Wire Wire Line
	6100 1800 6100 1700
$Comp
L Transistor_FET:IRF540N Q1
U 1 1 5E229B42
P 4700 1600
F 0 "Q1" V 5050 1550 50  0000 L CNN
F 1 "IRF540N" V 4950 1450 50  0000 L CNN
F 2 "Package_TO_SOT_SMD:TO-263-2" H 4950 1525 50  0001 L CIN
F 3 "http://www.irf.com/product-info/datasheets/data/irf540n.pdf" H 4700 1600 50  0001 L CNN
	1    4700 1600
	0    1    -1   0   
$EndComp
$Comp
L power:GND #PWR0108
U 1 1 5E21E626
P 4900 1650
F 0 "#PWR0108" H 4900 1400 50  0001 C CNN
F 1 "GND" H 4905 1477 50  0000 C CNN
F 2 "" H 4900 1650 50  0001 C CNN
F 3 "" H 4900 1650 50  0001 C CNN
	1    4900 1650
	1    0    0    -1  
$EndComp
$Comp
L Transistor_FET:IRF540N Q2
U 1 1 5E21E620
P 5100 1650
F 0 "Q2" V 5450 1550 50  0000 L CNN
F 1 "IRF540N" V 5350 1500 50  0000 L CNN
F 2 "Package_TO_SOT_SMD:TO-263-2" H 5350 1575 50  0001 L CIN
F 3 "http://www.irf.com/product-info/datasheets/data/irf540n.pdf" H 5100 1650 50  0001 L CNN
	1    5100 1650
	0    1    -1   0   
$EndComp
Wire Wire Line
	4900 1650 4900 1550
Wire Wire Line
	5300 1700 5300 1600
Wire Wire Line
	4500 1600 4500 1500
Wire Wire Line
	2750 2000 2850 2000
Wire Wire Line
	2750 2100 2850 2100
Wire Wire Line
	9700 2250 9700 2150
Wire Wire Line
	10100 2300 10100 2200
$Comp
L power:GND #PWR0121
U 1 1 5E9E4CBD
P 10500 2350
F 0 "#PWR0121" H 10500 2100 50  0001 C CNN
F 1 "GND" H 10505 2177 50  0000 C CNN
F 2 "" H 10500 2350 50  0001 C CNN
F 3 "" H 10500 2350 50  0001 C CNN
	1    10500 2350
	1    0    0    -1  
$EndComp
Wire Wire Line
	10500 2350 10500 2250
Wire Wire Line
	1600 2000 1950 2000
Wire Wire Line
	1950 2100 1600 2100
Wire Wire Line
	2250 1500 1300 1500
Wire Wire Line
	4900 1100 7450 1100
Wire Wire Line
	5300 1150 7550 1150
Wire Wire Line
	7550 1150 7550 1100
Wire Wire Line
	5700 1200 7650 1200
Wire Wire Line
	7650 1200 7650 1100
Wire Wire Line
	6100 1250 7750 1250
Wire Wire Line
	7750 1250 7750 1100
Wire Wire Line
	6500 1300 7850 1300
Wire Wire Line
	7850 1300 7850 1100
Wire Wire Line
	6900 1350 7950 1350
Wire Wire Line
	7950 1350 7950 1100
Wire Wire Line
	7300 1400 8050 1400
Wire Wire Line
	8050 1400 8050 1100
Wire Wire Line
	7700 1450 8150 1450
Wire Wire Line
	8150 1450 8150 1100
Wire Wire Line
	8100 1500 8250 1500
Wire Wire Line
	8250 1500 8250 1100
Wire Wire Line
	8500 1500 8350 1500
Wire Wire Line
	8350 1500 8350 1100
Wire Wire Line
	8900 1450 8450 1450
Wire Wire Line
	8450 1450 8450 1100
Wire Wire Line
	9300 1400 8550 1400
Wire Wire Line
	8550 1400 8550 1100
Wire Wire Line
	8650 1100 8650 1350
Wire Wire Line
	8650 1350 9700 1350
Wire Wire Line
	8750 1100 8750 1300
Wire Wire Line
	8750 1300 10100 1300
Wire Wire Line
	10500 1250 8850 1250
Wire Wire Line
	8850 1250 8850 1100
Wire Wire Line
	8950 1100 8950 1200
Wire Wire Line
	8950 1200 10900 1200
$Comp
L Transistor_FET:IRF540N Q7
U 1 1 5E21C431
P 7100 1900
F 0 "Q7" V 7450 1850 50  0000 L CNN
F 1 "IRF540N" V 7350 1750 50  0000 L CNN
F 2 "Package_TO_SOT_SMD:TO-263-2" H 7350 1825 50  0001 L CIN
F 3 "http://www.irf.com/product-info/datasheets/data/irf540n.pdf" H 7100 1900 50  0001 L CNN
	1    7100 1900
	0    1    -1   0   
$EndComp
Wire Wire Line
	4900 1500 4900 1100
Wire Wire Line
	5300 1550 5300 1150
Wire Wire Line
	5700 1600 5700 1200
Wire Wire Line
	6100 1650 6100 1250
Wire Wire Line
	6500 1700 6500 1300
Wire Wire Line
	6900 1750 6900 1350
Wire Wire Line
	7300 1800 7300 1400
Wire Wire Line
	7700 1850 7700 1450
Wire Wire Line
	8100 1900 8100 1500
Wire Wire Line
	8500 1950 8500 1500
Wire Wire Line
	8900 2000 8900 1450
Wire Wire Line
	9300 2050 9300 1400
Wire Wire Line
	9700 1350 9700 2100
Wire Wire Line
	10100 1300 10100 2150
Wire Wire Line
	10500 1250 10500 2200
Wire Wire Line
	10900 1200 10900 2250
Wire Wire Line
	4700 2000 4250 2000
Wire Wire Line
	4250 2100 5100 2100
Wire Wire Line
	4250 2200 5500 2200
Wire Wire Line
	4250 2300 5900 2300
Wire Wire Line
	4250 2400 6300 2400
Wire Wire Line
	4250 2500 6700 2500
Wire Wire Line
	4250 2600 7100 2600
Wire Wire Line
	4250 2700 7500 2700
Wire Wire Line
	4250 2800 7900 2800
Wire Wire Line
	4250 2900 8300 2900
Wire Wire Line
	4250 3000 8700 3000
Wire Wire Line
	4250 3100 9100 3100
Wire Wire Line
	4250 3200 9500 3200
Wire Wire Line
	4250 3300 9900 3300
Wire Wire Line
	4250 3400 10300 3400
Wire Wire Line
	4250 3500 10700 3500
Wire Wire Line
	2850 2200 2850 2300
Connection ~ 2850 2300
Wire Wire Line
	2850 2900 2850 3000
Wire Wire Line
	2850 3000 2850 3100
Connection ~ 2850 3000
Wire Wire Line
	2850 3100 2850 3200
Connection ~ 2850 3100
Wire Wire Line
	2850 3200 2850 3300
Connection ~ 2850 3200
Wire Wire Line
	2850 3300 2850 3400
Connection ~ 2850 3300
Wire Wire Line
	2850 3400 2850 3800
Wire Wire Line
	2850 3800 3550 3800
Connection ~ 2850 3400
Connection ~ 3550 3800
Text GLabel 1600 2200 2    50   Output ~ 0
Up
Text GLabel 1600 2300 2    50   Output ~ 0
Down
Wire Wire Line
	4700 1800 4700 2000
Wire Wire Line
	5100 2100 5100 1850
Wire Wire Line
	5500 1900 5500 2200
Wire Wire Line
	5900 2300 5900 1950
Wire Wire Line
	6300 2000 6300 2400
Wire Wire Line
	6700 2500 6700 2050
Wire Wire Line
	7100 2100 7100 2600
Wire Wire Line
	7500 2150 7500 2700
Wire Wire Line
	7900 2800 7900 2200
Wire Wire Line
	8300 2900 8300 2250
Wire Wire Line
	8700 2300 8700 3000
Wire Wire Line
	9100 2350 9100 3100
Wire Wire Line
	9500 2400 9500 3200
Wire Wire Line
	9900 2450 9900 3300
Wire Wire Line
	10300 2500 10300 3400
Wire Wire Line
	10700 2550 10700 3500
Connection ~ 1900 6800
Wire Wire Line
	1900 6450 1900 6800
Wire Wire Line
	2000 6450 1900 6450
Wire Wire Line
	1900 6800 2000 6800
Wire Wire Line
	1900 7200 1900 6800
Wire Wire Line
	1600 7000 2000 7000
Wire Wire Line
	1600 6650 2000 6650
Wire Wire Line
	1800 6550 1800 6900
Connection ~ 1800 6550
Wire Wire Line
	2000 6550 1800 6550
Wire Wire Line
	1800 6900 2000 6900
Wire Wire Line
	1800 6450 1800 6550
Wire Wire Line
	1600 6450 1800 6450
Text GLabel 1600 6450 0    50   Input ~ 0
5V
$Comp
L power:GND #PWR0122
U 1 1 5E46BA38
P 1900 7200
F 0 "#PWR0122" H 1900 6950 50  0001 C CNN
F 1 "GND" H 1905 7027 50  0000 C CNN
F 2 "" H 1900 7200 50  0001 C CNN
F 3 "" H 1900 7200 50  0001 C CNN
	1    1900 7200
	1    0    0    -1  
$EndComp
$Comp
L Connector:Screw_Terminal_01x03 J4
U 1 1 5E45ECA6
P 2200 6900
F 0 "J4" H 2280 6942 50  0000 L CNN
F 1 "Screw_Terminal_01x03" H 2280 6851 50  0000 L CNN
F 2 "TerminalBlock_Phoenix:TerminalBlock_Phoenix_MKDS-1,5-3-5.08_1x03_P5.08mm_Horizontal" H 2200 6900 50  0001 C CNN
F 3 "~" H 2200 6900 50  0001 C CNN
	1    2200 6900
	1    0    0    -1  
$EndComp
$Comp
L Connector:Screw_Terminal_01x03 J3
U 1 1 5E45DC52
P 2200 6550
F 0 "J3" H 2280 6592 50  0000 L CNN
F 1 "Screw_Terminal_01x03" H 2280 6501 50  0000 L CNN
F 2 "TerminalBlock_Phoenix:TerminalBlock_Phoenix_MKDS-1,5-3-5.08_1x03_P5.08mm_Horizontal" H 2200 6550 50  0001 C CNN
F 3 "~" H 2200 6550 50  0001 C CNN
	1    2200 6550
	1    0    0    -1  
$EndComp
Text GLabel 1600 7000 0    50   Input ~ 0
Down
Text GLabel 1600 6650 0    50   Input ~ 0
Up
$EndSCHEMATC
